Basics of R for Data Science and Statistics
…
Together with Python and SQL, one of the most popular languages for data science

More popular among academic researchers and statisticians

Hello plot!

## Load packages
library(tidyverse)
## Load data
data(mpg)
## Inspect data
mpg %>% 
  print(n=4, width=70)

# A tibble: 234 × 11
  manufacturer model displ  year   cyl trans   drv     cty   hwy fl   
  <chr>        <chr> <dbl> <int> <int> <chr>   <chr> <int> <int> <chr>
1 audi         a4      1.8  1999     4 auto(l… f        18    29 p    
2 audi         a4      1.8  1999     4 manual… f        21    29 p    
3 audi         a4      2    2008     4 manual… f        20    31 p    
4 audi         a4      2    2008     4 auto(a… f        21    30 p    
# ℹ 230 more rows
# ℹ 1 more variable: class <chr>
…
With an inner_join(x, y), only observations that appear in both x and y datasets are returned

The primary key must appear in the y dataset, and the foreign key must appear in the x dataset for an observation with that key to be returned.

All variables in x and y are returned.

For non-key variables with the same names in x and y, suffixes are added to identify which dataset each variable came from.

Inner Join: Example

# Load data
print(dates <- read_csv("https://bit.ly/DM24_dates"), n = 4)

# A tibble: 8 × 3
  name              birth_year death_year
  <chr>                  <dbl>      <dbl>
1 Janaki Ammal            1897       1984
2 Chien-Shiung Wu         1912       1997
3 Katherine Johnson       1918       2020
4 Rosalind Franklin       1920       1958
# ℹ 4 more rows

print(works <- read_csv("https://bit.ly/DM24_works"), n = 4)

# A tibble: 9 × 2
  name            known_for                                                     
  <chr>           <chr>                                                         
1 Ada Lovelace    first computer algorithm                                      
2 Marie Curie     theory of radioactivity,  discovery of elements polonium and …
3 Janaki Ammal    hybrid species, biodiversity protection                       
4 Chien-Shiung Wu confim and refine theory of radioactive beta decy, Wu experim…
# ℹ 5 more rows
…
Pivoting: Long -> Wide

With pivot_wider(), we move in the opposite direction: your units are distributed over multiple rows, so pivot until you have a single case per row of your tibble

print(table2, n=8)

# A tibble: 12 × 4
  country      year type           count
  <chr>       <dbl> <chr>          <dbl>
1 Afghanistan  1999 cases            745
2 Afghanistan  1999 population  19987071
3 Afghanistan  2000 cases           2666
4 Afghanistan  2000 population  20595360
5 Brazil       1999 cases          37737
6 Brazil       1999 population 172006362
7 Brazil       2000 cases          80488
8 Brazil       2000 population 174504898
# ℹ 4 more rows
…
